%YAML 1.1
%TAG !u! tag:unity3d.com,2011:
--- !u!21 &2100000
Material:
  serializedVersion: 3
  m_ObjectHideFlags: 0
  m_PrefabParentObject: {fileID: 0}
  m_PrefabInternal: {fileID: 0}
  m_Name: UnderWater
  m_Shader: {fileID: 4800000, guid: c5176a0c64e5c414eb0448b86d08b54b, type: 3}
  m_ShaderKeywords: []
  m_CustomRenderQueue: -1
  m_SavedProperties:
    serializedVersion: 2
    m_TexEnvs:
      data:
        first:
          name: _MainTex
        second:
          m_Texture: {fileID: 0}
          m_Scale: {x: 1, y: 1}
          m_Offset: {x: 0, y: 0}
      data:
        first:
          name: _Reflection
        second:
          m_Texture: {fileID: 8900000, guid: 3dd5c1ebbe64b8045887edb341157668, type: 2}
          m_Scale: {x: 1, y: 1}
          m_Offset: {x: 0, y: 0}
      data:
        first:
          name: _DistortionMap1
        second:
          m_Texture: {fileID: 2800000, guid: e6918939f68e06d4691522e2cf389c55, type: 3}
          m_Scale: {x: 30, y: 30}
          m_Offset: {x: 0, y: 0}
      data:
        first:
          name: _DistortionMap2
        second:
          m_Texture: {fileID: 2800000, guid: e6918939f68e06d4691522e2cf389c55, type: 3}
          m_Scale: {x: 30, y: 30}
          m_Offset: {x: 0, y: 0}
    m_Floats:
      data:
        first:
          name: _Opacity
        second: .242857113
      data:
        first:
          name: _DistortionPower
        second: 0
      data:
        first:
          name: _ReflectPower
        second: .571428537
      data:
        first:
          name: _Specular
        second: 2.25
      data:
        first:
          name: _Gloss
        second: .819642842
    m_Colors:
      data:
        first:
          name: _Color
        second: {r: .345098048, g: .862745106, b: 1, a: 1}
